<?xml version="1.0" encoding="UTF-8" standalone="no"?>
<!-- Created with Inkscape (http://www.inkscape.org/) -->

<svg
   xmlns:dc="http://purl.org/dc/elements/1.1/"
   xmlns:cc="http://creativecommons.org/ns#"
   xmlns:rdf="http://www.w3.org/1999/02/22-rdf-syntax-ns#"
   xmlns:svg="http://www.w3.org/2000/svg"
   xmlns="http://www.w3.org/2000/svg"
   xmlns:xlink="http://www.w3.org/1999/xlink"
   xmlns:sodipodi="http://sodipodi.sourceforge.net/DTD/sodipodi-0.dtd"
   xmlns:inkscape="http://www.inkscape.org/namespaces/inkscape"
   width="744.09448819"
   height="1052.3622047"
   id="svg2"
   version="1.1"
   inkscape:version="0.91 r13725"
   sodipodi:docname="gsoc-2016.svg"
   inkscape:export-filename="/home/aruiz/src/planet-web/web/heads/logos/gsoc-2015.png"
   inkscape:export-xdpi="26.620541"
   inkscape:export-ydpi="26.620541">
  <defs
     id="defs4">
    <linearGradient
       inkscape:collect="always"
       id="linearGradient4135">
      <stop
         style="stop-color:#fcaf3e;stop-opacity:1"
         offset="0"
         id="stop4137" />
      <stop
         style="stop-color:#fce94f;stop-opacity:1"
         offset="1"
         id="stop4139" />
    </linearGradient>
    <linearGradient
       inkscape:collect="always"
       id="linearGradient4074">
      <stop
         style="stop-color:#555753;stop-opacity:1;"
         offset="0"
         id="stop4076" />
      <stop
         style="stop-color:#555753;stop-opacity:0;"
         offset="1"
         id="stop4078" />
    </linearGradient>
    <linearGradient
       id="linearGradient3940"
       inkscape:collect="always">
      <stop
         id="stop3942"
         offset="0"
         style="stop-color:#729fcf;stop-opacity:1" />
      <stop
         id="stop3944"
         offset="1"
         style="stop-color:#b1cbe4;stop-opacity:1" />
    </linearGradient>
    <linearGradient
       inkscape:collect="always"
       id="linearGradient3879">
      <stop
         style="stop-color:#babdb6;stop-opacity:1"
         offset="0"
         id="stop3881" />
      <stop
         style="stop-color:#eeeeec;stop-opacity:1"
         offset="1"
         id="stop3883" />
    </linearGradient>
    <linearGradient
       inkscape:collect="always"
       id="linearGradient3851">
      <stop
         style="stop-color:#2e3436;stop-opacity:1;"
         offset="0"
         id="stop3853" />
      <stop
         style="stop-color:#888a85;stop-opacity:1"
         offset="1"
         id="stop3855" />
    </linearGradient>
    <linearGradient
       inkscape:collect="always"
       id="linearGradient3843">
      <stop
         style="stop-color:#4e9a06;stop-opacity:1;"
         offset="0"
         id="stop3845" />
      <stop
         style="stop-color:#8ae234;stop-opacity:1"
         offset="1"
         id="stop3847" />
    </linearGradient>
    <linearGradient
       inkscape:collect="always"
       xlink:href="#linearGradient3879"
       id="linearGradient3885"
       x1="271.28381"
       y1="255.12378"
       x2="271.28381"
       y2="226.35936"
       gradientUnits="userSpaceOnUse"
       gradientTransform="matrix(0.65583216,0,0,0.65583216,113.15981,77.95077)" />
    <linearGradient
       inkscape:collect="always"
       xlink:href="#linearGradient3879-1"
       id="linearGradient3885-6"
       x1="271.28381"
       y1="255.12378"
       x2="271.28381"
       y2="226.35936"
       gradientUnits="userSpaceOnUse" />
    <linearGradient
       inkscape:collect="always"
       id="linearGradient3879-1">
      <stop
         style="stop-color:#babdb6;stop-opacity:1"
         offset="0"
         id="stop3881-6" />
      <stop
         style="stop-color:#eeeeec;stop-opacity:1"
         offset="1"
         id="stop3883-2" />
    </linearGradient>
    <linearGradient
       inkscape:collect="always"
       xlink:href="#linearGradient3879-1"
       id="linearGradient3901"
       x1="271.28381"
       y1="255.12378"
       x2="271.28381"
       y2="226.35936"
       gradientUnits="userSpaceOnUse" />
    <linearGradient
       gradientTransform="matrix(1.2251019,0,0,1.2251019,85.605747,-41.149588)"
       y2="226.35936"
       x2="271.28381"
       y1="260.18964"
       x1="271.28381"
       gradientUnits="userSpaceOnUse"
       id="linearGradient3911"
       xlink:href="#linearGradient3940"
       inkscape:collect="always" />
    <linearGradient
       inkscape:collect="always"
       xlink:href="#linearGradient3879-4"
       id="linearGradient3885-8"
       x1="271.28381"
       y1="255.12378"
       x2="271.28381"
       y2="226.35936"
       gradientUnits="userSpaceOnUse"
       gradientTransform="matrix(0.75798928,0,0,0.75798928,50.348215,53.392513)" />
    <linearGradient
       inkscape:collect="always"
       id="linearGradient3879-4">
      <stop
         style="stop-color:#babdb6;stop-opacity:1"
         offset="0"
         id="stop3881-0" />
      <stop
         style="stop-color:#eeeeec;stop-opacity:1"
         offset="1"
         id="stop3883-8" />
    </linearGradient>
    <linearGradient
       inkscape:collect="always"
       xlink:href="#linearGradient3879-4"
       id="linearGradient3960"
       x1="271.28381"
       y1="255.12378"
       x2="271.28381"
       y2="226.35936"
       gradientUnits="userSpaceOnUse"
       gradientTransform="matrix(0.75798928,0,0,0.75798928,50.348215,53.392513)" />
    <linearGradient
       y2="239.6861"
       x2="271.28381"
       y1="280.59216"
       x1="271.28381"
       gradientTransform="matrix(0.580243,0,0,0.580243,126.35774,158.22547)"
       gradientUnits="userSpaceOnUse"
       id="linearGradient3970"
       xlink:href="#linearGradient3879-4"
       inkscape:collect="always" />
    <linearGradient
       y2="239.6861"
       x2="271.28381"
       y1="280.59216"
       x1="271.28381"
       gradientTransform="matrix(0.59990326,0,0,0.59990326,62.440501,154.02259)"
       gradientUnits="userSpaceOnUse"
       id="linearGradient3970-9"
       xlink:href="#linearGradient3879-4-6"
       inkscape:collect="always" />
    <linearGradient
       inkscape:collect="always"
       id="linearGradient3879-4-6">
      <stop
         style="stop-color:#babdb6;stop-opacity:1"
         offset="0"
         id="stop3881-0-3" />
      <stop
         style="stop-color:#eeeeec;stop-opacity:1"
         offset="1"
         id="stop3883-8-9" />
    </linearGradient>
    <linearGradient
       y2="239.6861"
       x2="271.28381"
       y1="280.59216"
       x1="271.28381"
       gradientTransform="matrix(0.59990326,0,0,0.59990326,62.440501,154.02259)"
       gradientUnits="userSpaceOnUse"
       id="linearGradient4013"
       xlink:href="#linearGradient3879-4-6"
       inkscape:collect="always" />
    <linearGradient
       inkscape:collect="always"
       xlink:href="#linearGradient4074"
       id="linearGradient4080"
       x1="260.55301"
       y1="323.19034"
       x2="282.94308"
       y2="208.10867"
       gradientUnits="userSpaceOnUse"
       gradientTransform="matrix(1.3912252,0,0,1.3912252,-39.885147,-117.50819)" />
    <linearGradient
       inkscape:collect="always"
       xlink:href="#linearGradient4074-4"
       id="linearGradient4080-2"
       x1="260.55301"
       y1="323.19034"
       x2="282.94308"
       y2="208.10867"
       gradientUnits="userSpaceOnUse"
       gradientTransform="matrix(1.4383638,0,0,1.4383638,-99.33363,-133.07399)" />
    <linearGradient
       inkscape:collect="always"
       id="linearGradient4074-4">
      <stop
         style="stop-color:#555753;stop-opacity:1;"
         offset="0"
         id="stop4076-4" />
      <stop
         style="stop-color:#555753;stop-opacity:0;"
         offset="1"
         id="stop4078-4" />
    </linearGradient>
    <linearGradient
       inkscape:collect="always"
       xlink:href="#linearGradient4074-4"
       id="linearGradient4096"
       x1="260.55301"
       y1="323.19034"
       x2="282.94308"
       y2="208.10867"
       gradientUnits="userSpaceOnUse"
       gradientTransform="matrix(1.4383638,0,0,1.4383638,-99.33363,-133.07399)" />
    <linearGradient
       inkscape:collect="always"
       xlink:href="#linearGradient4135"
       id="linearGradient4141"
       x1="405.19455"
       y1="283.58682"
       x2="390.89896"
       y2="367.25336"
       gradientUnits="userSpaceOnUse"
       gradientTransform="matrix(1.1824215,0,0,1.1824215,14.745073,-81.171068)" />
    <linearGradient
       inkscape:collect="always"
       xlink:href="#linearGradient3843"
       id="linearGradient4147"
       gradientUnits="userSpaceOnUse"
       x1="304.63956"
       y1="361.6572"
       x2="304.63956"
       y2="219.97719" />
    <linearGradient
       inkscape:collect="always"
       xlink:href="#linearGradient3851"
       id="linearGradient4149"
       gradientUnits="userSpaceOnUse"
       gradientTransform="translate(-40.903783,-243.94371)"
       x1="393.94388"
       y1="457.12823"
       x2="393.94388"
       y2="605.62067" />
    <linearGradient
       inkscape:collect="always"
       xlink:href="#linearGradient4135-8"
       id="linearGradient4141-9"
       x1="376.80286"
       y1="376.98248"
       x2="376.80286"
       y2="304.88885"
       gradientUnits="userSpaceOnUse"
       gradientTransform="matrix(1.1824215,0,0,1.1824215,14.745073,-81.171068)" />
    <linearGradient
       inkscape:collect="always"
       id="linearGradient4135-8">
      <stop
         style="stop-color:#fcaf3e;stop-opacity:1"
         offset="0"
         id="stop4137-0" />
      <stop
         style="stop-color:#fce94f;stop-opacity:1"
         offset="1"
         id="stop4139-6" />
    </linearGradient>
    <linearGradient
       inkscape:collect="always"
       xlink:href="#linearGradient4135-8"
       id="linearGradient4165"
       x1="376.80286"
       y1="376.98248"
       x2="376.80286"
       y2="304.88885"
       gradientUnits="userSpaceOnUse"
       gradientTransform="matrix(1.1824215,0,0,1.1824215,14.745073,-81.171068)" />
    <linearGradient
       y2="304.88885"
       x2="376.80286"
       y1="376.98248"
       x1="376.80286"
       gradientTransform="matrix(1.1824215,0,0,1.1824215,113.75324,-2.4518472)"
       gradientUnits="userSpaceOnUse"
       id="linearGradient4175"
       xlink:href="#linearGradient4135-8"
       inkscape:collect="always" />
    <filter
       inkscape:collect="always"
       id="filter4220"
       x="-0.088989913"
       width="1.1779798"
       y="-0.23643803"
       height="1.4728761">
      <feGaussianBlur
         inkscape:collect="always"
         stdDeviation="5.4254758"
         id="feGaussianBlur4222" />
    </filter>
    <linearGradient
       inkscape:collect="always"
       xlink:href="#linearGradient3879-8"
       id="linearGradient3885-0"
       x1="271.28381"
       y1="255.12378"
       x2="271.28381"
       y2="226.35936"
       gradientUnits="userSpaceOnUse"
       gradientTransform="matrix(0.65583216,0,0,0.65583216,113.15981,77.95077)" />
    <linearGradient
       inkscape:collect="always"
       id="linearGradient3879-8">
      <stop
         style="stop-color:#babdb6;stop-opacity:1"
         offset="0"
         id="stop3881-1" />
      <stop
         style="stop-color:#eeeeec;stop-opacity:1"
         offset="1"
         id="stop3883-0" />
    </linearGradient>
    <linearGradient
       inkscape:collect="always"
       xlink:href="#linearGradient3879-8"
       id="linearGradient4254"
       x1="271.28381"
       y1="255.12378"
       x2="271.28381"
       y2="226.35936"
       gradientUnits="userSpaceOnUse"
       gradientTransform="matrix(0.65583216,0,0,0.65583216,113.15981,77.95077)" />
    <linearGradient
       gradientTransform="matrix(1.2251019,0,0,1.2251019,112.13538,12.557573)"
       y2="226.35936"
       x2="271.28381"
       y1="260.18964"
       x1="271.28381"
       gradientUnits="userSpaceOnUse"
       id="linearGradient3911-6"
       xlink:href="#linearGradient3940-5"
       inkscape:collect="always" />
    <linearGradient
       id="linearGradient3940-5"
       inkscape:collect="always">
      <stop
         id="stop3942-3"
         offset="0"
         style="stop-color:#729fcf;stop-opacity:1" />
      <stop
         id="stop3944-8"
         offset="1"
         style="stop-color:#b1cbe4;stop-opacity:1" />
    </linearGradient>
    <linearGradient
       gradientTransform="matrix(1.2251019,0,0,1.2251019,85.605747,-41.149588)"
       y2="226.35936"
       x2="271.28381"
       y1="260.18964"
       x1="271.28381"
       gradientUnits="userSpaceOnUse"
       id="linearGradient4266"
       xlink:href="#linearGradient3940-5"
       inkscape:collect="always" />
    <linearGradient
       y2="226.35936"
       x2="271.28381"
       y1="255.12378"
       x1="271.28381"
       gradientTransform="matrix(0.65583216,0,0,0.65583216,139.68945,131.65793)"
       gradientUnits="userSpaceOnUse"
       id="linearGradient4278"
       xlink:href="#linearGradient3879-8"
       inkscape:collect="always" />
    <linearGradient
       inkscape:collect="always"
       xlink:href="#linearGradient3879-0"
       id="linearGradient3885-1"
       x1="271.28381"
       y1="255.12378"
       x2="271.28381"
       y2="226.35936"
       gradientUnits="userSpaceOnUse"
       gradientTransform="matrix(0.65583216,0,0,0.65583216,113.15981,77.95077)" />
    <linearGradient
       inkscape:collect="always"
       id="linearGradient3879-0">
      <stop
         style="stop-color:#babdb6;stop-opacity:1"
         offset="0"
         id="stop3881-7" />
      <stop
         style="stop-color:#eeeeec;stop-opacity:1"
         offset="1"
         id="stop3883-6" />
    </linearGradient>
    <linearGradient
       inkscape:collect="always"
       xlink:href="#linearGradient3879-0"
       id="linearGradient4455"
       x1="271.28381"
       y1="255.12378"
       x2="271.28381"
       y2="226.35936"
       gradientUnits="userSpaceOnUse"
       gradientTransform="matrix(0.65583216,0,0,0.65583216,113.15981,77.95077)" />
    <linearGradient
       gradientTransform="matrix(1.2251019,0,0,1.2251019,85.605747,-41.149588)"
       y2="226.35936"
       x2="271.28381"
       y1="260.18964"
       x1="271.28381"
       gradientUnits="userSpaceOnUse"
       id="linearGradient3911-4"
       xlink:href="#linearGradient3940-2"
       inkscape:collect="always" />
    <linearGradient
       id="linearGradient3940-2"
       inkscape:collect="always">
      <stop
         id="stop3942-0"
         offset="0"
         style="stop-color:#729fcf;stop-opacity:1" />
      <stop
         id="stop3944-7"
         offset="1"
         style="stop-color:#b1cbe4;stop-opacity:1" />
    </linearGradient>
    <linearGradient
       gradientTransform="matrix(1.2251019,0,0,1.2251019,85.605747,-41.149588)"
       y2="226.35936"
       x2="271.28381"
       y1="260.18964"
       x1="271.28381"
       gradientUnits="userSpaceOnUse"
       id="linearGradient4467"
       xlink:href="#linearGradient3940-2"
       inkscape:collect="always" />
    <linearGradient
       y2="226.35936"
       x2="271.28381"
       y1="260.18964"
       x1="271.28381"
       gradientTransform="matrix(1.2251019,0,0,1.2251019,85.605747,-41.149588)"
       gradientUnits="userSpaceOnUse"
       id="linearGradient4480"
       xlink:href="#linearGradient3940-2"
       inkscape:collect="always" />
    <filter
       inkscape:collect="always"
       id="filter4539">
      <feGaussianBlur
         inkscape:collect="always"
         stdDeviation="1.8067649"
         id="feGaussianBlur4541" />
    </filter>
    <linearGradient
       inkscape:collect="always"
       xlink:href="#linearGradient3879"
       id="linearGradient4543"
       gradientUnits="userSpaceOnUse"
       gradientTransform="matrix(0.65583216,0,0,0.65583216,110.30267,77.95077)"
       x1="271.28381"
       y1="255.12378"
       x2="271.28381"
       y2="226.35936" />
  </defs>
  <sodipodi:namedview
     id="base"
     pagecolor="#ffffff"
     bordercolor="#666666"
     borderopacity="1.0"
     inkscape:pageopacity="0.0"
     inkscape:pageshadow="2"
     inkscape:zoom="1"
     inkscape:cx="536.04213"
     inkscape:cy="877.52802"
     inkscape:document-units="px"
     inkscape:current-layer="layer1"
     showgrid="false"
     inkscape:window-width="1392"
     inkscape:window-height="1178"
     inkscape:window-x="296"
     inkscape:window-y="34"
     inkscape:window-maximized="0" />
  <metadata
     id="metadata7">
    <rdf:RDF>
      <cc:Work
         rdf:about="">
        <dc:format>image/svg+xml</dc:format>
        <dc:type
           rdf:resource="http://purl.org/dc/dcmitype/StillImage" />
        <dc:title></dc:title>
      </cc:Work>
    </rdf:RDF>
  </metadata>
  <g
     inkscape:label="Layer 1"
     inkscape:groupmode="layer"
     id="layer1">
    <g
       id="g4143"
       transform="matrix(0.93765231,0,0,1,11.115579,0)">
      <rect
         ry="10.101525"
         rx="10.773211"
         y="210.40004"
         x="236.46725"
         height="140.41121"
         width="363.05835"
         id="rect2991-4"
         style="fill:url(#linearGradient4147);fill-opacity:1;stroke:none" />
      <path
         inkscape:connector-curvature="0"
         id="rect2991"
         d="m 246.58406,210.40004 c -5.59625,0 -10.125,4.52875 -10.125,10.125 l 0,60.09375 363.07466,0 0,-60.09375 c 0,-5.59625 -4.4975,-10.125 -10.09375,-10.125 z"
         style="fill:url(#linearGradient4149);fill-opacity:1;stroke:none"
         sodipodi:nodetypes="ssccsss" />
    </g>
    <text
       xml:space="preserve"
       style="font-size:33.80872345px;font-style:italic;font-variant:normal;font-weight:bold;font-stretch:normal;line-height:125%;letter-spacing:0px;word-spacing:0px;fill:url(#linearGradient3970);fill-opacity:1;stroke:none;font-family:Passion;-inkscape-font-specification:Passion Bold Italic"
       x="246.26082"
       y="307.91031"
       id="text3867-1"
       sodipodi:linespacing="125%"><tspan
         sodipodi:role="line"
         id="tspan3869-0"
         x="246.26082"
         y="307.91031"
         style="fill:url(#linearGradient3970);fill-opacity:1">of</tspan></text>
    <text
       xml:space="preserve"
       style="font-size:70.27972412px;font-style:italic;font-variant:normal;font-weight:bold;font-stretch:normal;line-height:125%;letter-spacing:0px;word-spacing:0px;fill:url(#linearGradient4080);fill-opacity:1;stroke:none;font-family:Passion;-inkscape-font-specification:Passion Bold Italic"
       x="271.75006"
       y="330.15863"
       id="text3867-1-9"
       sodipodi:linespacing="125%"><tspan
         sodipodi:role="line"
         id="tspan3869-0-3"
         x="271.75006"
         y="330.15863"
         style="fill:url(#linearGradient4080);fill-opacity:1;stroke:none">code</tspan></text>
    <text
       xml:space="preserve"
       style="font-style:italic;font-variant:normal;font-weight:bold;font-stretch:normal;font-size:85.9159317px;line-height:125%;font-family:Passion;-inkscape-font-specification:'Passion Bold Italic';letter-spacing:0px;word-spacing:0px;opacity:0.57894736;fill:#2e3436;fill-opacity:1;stroke:none;filter:url(#filter4220)"
       x="401.86115"
       y="341.89621"
       id="text3867-1-9-0-0"
       sodipodi:linespacing="125%"><tspan
         sodipodi:role="line"
         id="tspan3869-0-3-3-6"
         x="401.86115"
         y="341.89621"
         style="fill:#2e3436;fill-opacity:1;stroke:none">2015</tspan></text>
    <g
       transform="translate(1.2046547,1.4546339)"
       id="g4375-5"
       style="fill:#2e3436;filter:url(#filter4539)">
      <text
         sodipodi:linespacing="125%"
         id="text3867-9"
         y="247.1353"
         x="248.68283"
         style="font-size:38.21303558px;font-style:italic;font-variant:normal;font-weight:bold;font-stretch:normal;line-height:125%;letter-spacing:0px;word-spacing:0px;fill:#2e3436;fill-opacity:1;stroke:none;font-family:Passion;-inkscape-font-specification:Passion Bold Italic"
         xml:space="preserve"><tspan
           style="fill:#2e3436;fill-opacity:1"
           y="247.1353"
           x="248.68283"
           id="tspan3869-7"
           sodipodi:role="line">Google</tspan></text>
      <text
         sodipodi:linespacing="125%"
         id="text3867-8-5"
         y="274.8891"
         x="338.76428"
         style="font-size:71.38238525px;font-style:italic;font-variant:normal;font-weight:bold;font-stretch:normal;line-height:125%;letter-spacing:0px;word-spacing:0px;fill:#2e3436;fill-opacity:1;stroke:none;font-family:Passion;-inkscape-font-specification:Passion Bold Italic"
         xml:space="preserve"><tspan
           style="fill:#2e3436;fill-opacity:1"
           y="274.8891"
           x="338.76428"
           id="tspan3869-9-5"
           sodipodi:role="line">summer</tspan></text>
    </g>
    <g
       id="g4375">
      <text
         sodipodi:linespacing="125%"
         id="text3867"
         y="247.1353"
         x="245.82568"
         style="font-size:38.21303558px;font-style:italic;font-variant:normal;font-weight:bold;font-stretch:normal;line-height:125%;letter-spacing:0px;word-spacing:0px;fill:url(#linearGradient4543);fill-opacity:1;stroke:none;font-family:Passion;-inkscape-font-specification:Passion Bold Italic"
         xml:space="preserve"><tspan
           style="fill:url(#linearGradient4543);fill-opacity:1"
           y="247.1353"
           x="245.82568"
           id="tspan3869"
           sodipodi:role="line">Google</tspan></text>
      <text
         sodipodi:linespacing="125%"
         id="text3867-8"
         y="274.8891"
         x="338.76428"
         style="font-size:71.38238525px;font-style:italic;font-variant:normal;font-weight:bold;font-stretch:normal;line-height:125%;letter-spacing:0px;word-spacing:0px;fill:url(#linearGradient3911);fill-opacity:1;stroke:none;font-family:Passion;-inkscape-font-specification:Passion Bold Italic"
         xml:space="preserve"><tspan
           style="fill:url(#linearGradient3911);fill-opacity:1"
           y="274.8891"
           x="338.76428"
           id="tspan3869-9"
           sodipodi:role="line">summer</tspan></text>
    </g>
    <text
       xml:space="preserve"
       style="font-style:italic;font-variant:normal;font-weight:bold;font-stretch:normal;font-size:85.9159317px;line-height:125%;font-family:Passion;-inkscape-font-specification:'Passion Bold Italic';letter-spacing:0px;word-spacing:0px;fill:url(#linearGradient4141);fill-opacity:1;stroke:none"
       x="400.71011"
       y="341.03415"
       id="text3867-1-9-0"
       sodipodi:linespacing="125%"><tspan
         sodipodi:role="line"
         id="tspan3869-0-3-3"
         x="400.71011"
         y="341.03415"
         style="fill:url(#linearGradient4141);fill-opacity:1;stroke:none">2016</tspan></text>
  </g>
</svg>
